…
Whereas the “**nycflights13**” is a package of `dataset` on flights
departing New York City in 2013. This data frame contains all 336,776
flights that departed from New York City in 2013. The data came from the
[US Bureau of Transportation
Statistics](https://www.transtats.bts.gov/DatabaseInfo.asp?DB_ID=120&Link=0),
and is documented in `?flights`.

## Understanding and Analysing the dataset:

``` r
flights
```

    ## # A tibble: 336,776 x 19
    ##     year month   day dep_time sched_dep_time dep_delay arr_time sched_arr_time
    ##    <int> <int> <int>    <int>          <int>     <dbl>    <int>          <int>
    ##  1  2013     1     1      517            515         2      830            819
    ##  2  2013     1     1      533            529         4      850            830
    ##  3  2013     1     1      542            540         2      923            850
    ##  4  2013     1     1      544            545        -1     1004           1022
    ##  5  2013     1     1      554            600        -6      812            837
    ##  6  2013     1     1      554            558        -4      740            728
    ##  7  2013     1     1      555            600        -5      913            854
    ##  8  2013     1     1      557            600        -3      709            723
    ##  9  2013     1     1      557            600        -3      838            846
    ## 10  2013     1     1      558            600        -2      753            745
    ## # ... with 336,766 more rows, and 11 more variables: arr_delay <dbl>,
    ## #   carrier <chr>, flight <int>, tailnum <chr>, origin <chr>, dest <chr>,
    ## #   air_time <dbl>, distance <dbl>, hour <dbl>, minute <dbl>, time_hour <dttm>
…
**Code to find the average delay in flights per day:**

``` r
by_day <- group_by(flights, year, month, day)
summarise(by_day, Avgdelay = mean(dep_delay, na.rm = TRUE))
```

    ## `summarise()` regrouping output by 'year', 'month' (override with `.groups` argument)

    ## # A tibble: 365 x 4
    ## # Groups:   year, month [12]
    ##     year month   day Avgdelay
    ##    <int> <int> <int>    <dbl>
    ##  1  2013     1     1    11.5 
    ##  2  2013     1     2    13.9 
    ##  3  2013     1     3    11.0 
    ##  4  2013     1     4     8.95
    ##  5  2013     1     5     5.73
    ##  6  2013     1     6     7.15
    ##  7  2013     1     7     5.42
    ##  8  2013     1     8     2.55
    ##  9  2013     1     9     2.28
    ## 10  2013     1    10     2.84
    ## # ... with 355 more rows
…
#### Expectation:

The task is to explore the distribution of `price` of diamonds. The data
`diamonds` is available in the `library(tidyverse)`

Before approaching the question, I was trying to explore the data and
the data types.

**Code to find the data in `diamonds`:**

``` r
diamonds
```

    ## # A tibble: 53,940 x 10
    ##    carat cut       color clarity depth table price     x     y     z
    ##    <dbl> <ord>     <ord> <ord>   <dbl> <dbl> <int> <dbl> <dbl> <dbl>
    ##  1 0.23  Ideal     E     SI2      61.5    55   326  3.95  3.98  2.43
    ##  2 0.21  Premium   E     SI1      59.8    61   326  3.89  3.84  2.31
    ##  3 0.23  Good      E     VS1      56.9    65   327  4.05  4.07  2.31
    ##  4 0.290 Premium   I     VS2      62.4    58   334  4.2   4.23  2.63
    ##  5 0.31  Good      J     SI2      63.3    58   335  4.34  4.35  2.75
    ##  6 0.24  Very Good J     VVS2     62.8    57   336  3.94  3.96  2.48
    ##  7 0.24  Very Good I     VVS1     62.3    57   336  3.95  3.98  2.47
    ##  8 0.26  Very Good H     SI1      61.9    55   337  4.07  4.11  2.53
    ##  9 0.22  Fair      E     VS2      65.1    61   337  3.87  3.78  2.49
    ## 10 0.23  Very Good H     VS1      59.4    61   338  4     4.05  2.39
    ## # ... with 53,930 more rows
…
To identify the unusual values I filtered and checked the price values
below 500 and above 18500.

``` r
unusual <- diamonds %>% 
  filter( price > 18500) %>% 
  #filter( price < 1000) %>%
  select(price) %>%
  arrange(price)
unusual
```

    ## # A tibble: 102 x 1
    ##    price
    ##    <int>
    ##  1 18507
    ##  2 18507
    ##  3 18508
    ##  4 18508
    ##  5 18509
    ##  6 18515
    ##  7 18522
    ##  8 18524
    ##  9 18525
    ## 10 18526
    ## # ... with 92 more rows

``` r
unusual <- diamonds %>% 
  #filter( price > 18000) %>% 
  filter( price < 500) %>%
  select(price) %>%
  arrange(price)
unusual
```

    ## # A tibble: 1,729 x 1
    ##    price
    ##    <int>
    ##  1   326
    ##  2   326
    ##  3   327
    ##  4   334
    ##  5   335
    ##  6   336
    ##  7   336
    ##  8   337
    ##  9   337
    ## 10   338
    ## # ... with 1,719 more rows
…
I ran the following code to find if there are any missing values in
departure time and arrival time.

``` r
flights %>% 
  mutate(cancelled = is.na(dep_time) | is.na(arr_time)) %>% 
  filter(cancelled) %>% 
  select(dep_time, arr_time)
```

    ## # A tibble: 8,713 x 2
    ##    dep_time arr_time
    ##       <int>    <int>
    ##  1     2016       NA
    ##  2       NA       NA
    ##  3       NA       NA
    ##  4       NA       NA
    ##  5       NA       NA
    ##  6     2041       NA
    ##  7     2145       NA
    ##  8       NA       NA
    ##  9       NA       NA
    ## 10       NA       NA
    ## # ... with 8,703 more rows
…
